<?xml version="1.0" encoding="utf-8"?>
<!-- Generator: Adobe Illustrator 23.0.3, SVG Export Plug-In . SVG Version: 6.00 Build 0)  -->
<svg version="1.1" id="Шар_1" xmlns="http://www.w3.org/2000/svg" xmlns:xlink="http://www.w3.org/1999/xlink" x="0px" y="0px"
	 viewBox="0 0 9 18" style="enable-background:new 0 0 9 18;" xml:space="preserve">
<style type="text/css">
	.st0{fill-rule:evenodd;clip-rule:evenodd;}
</style>
<path class="st0" d="M6,18H2V9.5H0V6.2h2v-2C2,1.6,3.1,0,6.3,0H9v3.3H7.3C6.1,3.3,6,3.7,6,4.6l0,1.6h3L8.7,9.5H6V18z"/>
</svg>
