<?xml version="1.0" encoding="utf-8"?>
<!-- Generator: Adobe Illustrator 22.1.0, SVG Export Plug-In . SVG Version: 6.00 Build 0)  -->
<svg version="1.1" id="Слой_1" xmlns="http://www.w3.org/2000/svg" xmlns:xlink="http://www.w3.org/1999/xlink" x="0px" y="0px"
	 viewBox="0 0 24 23" style="enable-background:new 0 0 24 23;" xml:space="preserve">
<path d="M23.4,3c-1-0.4-1.9-1-2.8-1.6c-1.4-1-3.1-1.6-4.9-1.4h-1.4c-1.4,0-2.1,0.6-3.5,2.1C10.7,2,10.6,2,10.5,2
	C8.9,1.9,7.2,2.2,5.6,2.7C5.1,2.9,4.5,3,4,3H1C0.4,3,0,3.4,0,4v11.8c0,0,0,0.1,0,0.2c0,0.6,0.4,1,1,1h0.9c0.6,0.1,1.2,0.4,1.6,0.9
	l2.8,3.9C6.8,22.5,7.6,23,8.5,23c0.5,0,1-0.2,1.4-0.5c0.3-0.1,0.5-0.4,0.8-0.6c0.4,0.3,0.9,0.4,1.4,0.4c0.5,0,1.1-0.2,1.5-0.4
	c0.3-0.1,0.6-0.3,0.8-0.5c0.3,0.2,0.6,0.2,0.9,0.2c0.7,0,1.3-0.2,1.9-0.5c0.4-0.2,0.6-0.5,0.8-0.8c0.2,0.1,0.4,0.1,0.6,0.1
	c0.6,0,1.1-0.1,1.7-0.4c1.3-0.7,1.9-2.2,1.3-3.6c0-0.1-0.1-0.2-0.1-0.2L21.4,16H23c0.6,0,1-0.4,1-1V4C24,3.6,23.7,3.2,23.4,3z
	 M19.4,18.2c-0.3,0.1-0.5,0.2-0.8,0.2l-2.8-4.3c-0.3-0.5-0.9-0.6-1.4-0.3s-0.6,0.9-0.3,1.4l2.4,3.6c0,0.2-0.1,0.4-0.3,0.5
	c-0.2,0.2-0.6,0.3-0.9,0.3l-3.2-4.7c-0.3-0.5-0.9-0.6-1.4-0.3s-0.6,0.9-0.3,1.4l2.7,3.9c0,0.1-0.1,0.2-0.3,0.2
	c-0.3,0.2-0.7,0.3-1,0.2l-3.4-4.7c-0.3-0.4-1-0.5-1.4-0.2s-0.5,1-0.2,1.4l2.5,3.5c-0.1,0.2-0.3,0.3-0.4,0.4c-0.3,0.3-0.8,0.2-1-0.1
	l-2.8-4C4.3,15.7,3.2,15.1,2,15V5h2c0.8,0,1.5-0.1,2.2-0.4C7.1,4.3,8,4.1,8.9,4c-0.6,0.5-1.1,1-1.8,1.5C6.4,5.8,6,6.4,6,7.1
	c0,1,0.4,1.9,1.4,2.5c1,0.7,2.5,0.5,4.4-0.4c0.8-0.5,1.5-1,2.2-1.6l5.8,9.6C19.9,17.6,19.8,18,19.4,18.2z M22,14h-1.9L15,5.5
	c-0.1-0.1-0.1-0.1-0.2-0.2c-0.4-0.3-1-0.3-1.4,0.1c-0.8,0.8-1.6,1.5-2.6,2C9.4,8,8.6,8,8.4,7.8C8.2,7.7,8.1,7.4,8.1,7.2l0.1-0.1
	c1.1-0.7,2.1-1.6,3-2.6L11.7,4c1.7-1.9,1.9-2,2.5-2h1.4c1.4-0.2,2.8,0.2,3.8,1.1c0.9,0.5,1.7,1,2.6,1.5V14z"/>
</svg>
